Vignette 1 - Data
…
The diagonal cannot be linked, a vertex cannot link to itself

This workbook has two sheets, the adjacency matrix, sheet 1, and the vertex information, sheet 2

Point 6 highlighted that there are two sheets, but we know from above that read_adjMat() reads in sheet 1 by default. Thus, these first two code chunks provide identical outputs.

file <- system.file("extdata", "AH_microwave.xlsx", package = "AHgenPackage")
file

## [1] "C:/Users/av57/Documents/R/win-library/4.0/AHgenPackage/extdata/AH_microwave.xlsx"

read_adjMat(file)

## # A tibble: 25 x 26
##    vName `To cook food` `Time to heat f~ `Ease of cookin~ `Even dissipati~
##    <chr>          <dbl>            <dbl>            <dbl>            <dbl>
##  1 To c~              0                1                1                1
##  2 Time~              1                0                0                0
##  3 Ease~              1                0                0                0
##  4 Even~              1                0                0                0
##  5 Mini~              1                0                0                0
##  6 Mini~              1                0                0                0
##  7 Gene~              0                1                0                0
##  8 Moni~              0                1                1                0
##  9 Cont~              0                1                1                1
## 10 Cont~              0                1                0                1
## # ... with 15 more rows, and 21 more variables: `Minimise environmental
## #   impact` <dbl>, `Minimise energy use` <dbl>, `Generate heat` <dbl>, `Monitor
## #   condition of food` <dbl>, `Control heat transfer to food` <dbl>, `Control
## #   dissipation of heat` <dbl>, `Generate radio waves` <dbl>, `Generate
## #   light` <dbl>, `Set level of power` <dbl>, `Support food` <dbl>, `Stop heat
## #   dissipating to surroundings` <dbl>, `Connect to electricity supply` <dbl>,
## #   `Countdown time` <dbl>, Magnetron <dbl>, Controls <dbl>, Light <dbl>,
## #   Plate <dbl>, Door <dbl>, Walls <dbl>, Plug <dbl>, Timer <dbl>

read_adjMat(file, sheet = 1)

## # A tibble: 25 x 26
##    vName `To cook food` `Time to heat f~ `Ease of cookin~ `Even dissipati~
##    <chr>          <dbl>            <dbl>            <dbl>            <dbl>
##  1 To c~              0                1                1                1
##  2 Time~              1                0                0                0
##  3 Ease~              1                0                0                0
##  4 Even~              1                0                0                0
##  5 Mini~              1                0                0                0
##  6 Mini~              1                0                0                0
##  7 Gene~              0                1                0                0
##  8 Moni~              0                1                1                0
##  9 Cont~              0                1                1                1
## 10 Cont~              0                1                0                1
## # ... with 15 more rows, and 21 more variables: `Minimise environmental
## #   impact` <dbl>, `Minimise energy use` <dbl>, `Generate heat` <dbl>, `Monitor
## #   condition of food` <dbl>, `Control heat transfer to food` <dbl>, `Control
## #   dissipation of heat` <dbl>, `Generate radio waves` <dbl>, `Generate
## #   light` <dbl>, `Set level of power` <dbl>, `Support food` <dbl>, `Stop heat
## #   dissipating to surroundings` <dbl>, `Connect to electricity supply` <dbl>,
## #   `Countdown time` <dbl>, Magnetron <dbl>, Controls <dbl>, Light <dbl>,
## #   Plate <dbl>, Door <dbl>, Walls <dbl>, Plug <dbl>, Timer <dbl>

Notice that the empty cells from the Excel file are filled with zeroes by AHgen. This means these vertices are not linked, i.e. they have no weight. We might want to rescale the linked, or weighted edges, to 0.5. To do this, change the rescale argument to TRUE.

read_adjMat(file, rescale = TRUE)

## # A tibble: 25 x 26
##    vName `To cook food` `Time to heat f~ `Ease of cookin~ `Even dissipati~
##    <chr>          <dbl>            <dbl>            <dbl>            <dbl>
##  1 To c~            0                0.5              0.5              0.5
##  2 Time~            0.5              0                0                0  
##  3 Ease~            0.5              0                0                0  
##  4 Even~            0.5              0                0                0  
##  5 Mini~            0.5              0                0                0  
##  6 Mini~            0.5              0                0                0  
##  7 Gene~            0                0.5              0                0  
##  8 Moni~            0                0.5              0.5              0  
##  9 Cont~            0                0.5              0.5              0.5
## 10 Cont~            0                0.5              0                0.5
## # ... with 15 more rows, and 21 more variables: `Minimise environmental
## #   impact` <dbl>, `Minimise energy use` <dbl>, `Generate heat` <dbl>, `Monitor
## #   condition of food` <dbl>, `Control heat transfer to food` <dbl>, `Control
## #   dissipation of heat` <dbl>, `Generate radio waves` <dbl>, `Generate
## #   light` <dbl>, `Set level of power` <dbl>, `Support food` <dbl>, `Stop heat
## #   dissipating to surroundings` <dbl>, `Connect to electricity supply` <dbl>,
## #   `Countdown time` <dbl>, Magnetron <dbl>, Controls <dbl>, Light <dbl>,
## #   Plate <dbl>, Door <dbl>, Walls <dbl>, Plug <dbl>, Timer <dbl>
…
The vertex information can be read in using the function read_vInfo(). This function has two input arguments:

filename The file path (relative to the AHgen folder)

sheet The sheet number of the vertex information. This is set to 1 by default

Show code - Example 3

For the microwave AH, the vertex information is in the second sheet. Each row describes a single vertex in terms of level, level name and vertex name. To avoid errors, these columns must be named level, levelName and vName.

Add image here.

read_vInfo(file, sheet = 2)

## # A tibble: 25 x 3
##    level levelName                    vName                        
##    <dbl> <chr>                        <chr>                        
##  1     1 Functional purposes          To cook food                 
##  2     2 Values and priority measures Time to heat food            
##  3     2 Values and priority measures Ease of cooking              
##  4     2 Values and priority measures Even dissipation of heat     
##  5     2 Values and priority measures Minimise environmental impact
##  6     2 Values and priority measures Minimise energy use          
##  7     3 Generalised functions        Generate heat                
##  8     3 Generalised functions        Monitor condition of food    
##  9     3 Generalised functions        Control heat transfer to food
## 10     3 Generalised functions        Control dissipation of heat  
## # ... with 15 more rows
…
